Get Relative Abundance Index (RAI) based on number of individuals — get_rai_individuals • camtraptor
…
    Examples

# Calculate RAI based on number of individuals
get_rai_individuals(mica) # species = "all" by default, so equivalent of
#> # A tibble: 36 × 3
#>    deploymentID                         scientificName       rai
#>    <chr>                                <chr>              <dbl>
#>  1 29b7d356-4bb4-4ec4-b792-2af5cc32efa8 Anas platyrhynchos 131. 
#>  2 29b7d356-4bb4-4ec4-b792-2af5cc32efa8 Anas strepera       60.3
#>  3 29b7d356-4bb4-4ec4-b792-2af5cc32efa8 Ardea                0  
#>  4 29b7d356-4bb4-4ec4-b792-2af5cc32efa8 Ardea cinerea        0  
#>  5 29b7d356-4bb4-4ec4-b792-2af5cc32efa8 Castor fiber         0  
#>  6 29b7d356-4bb4-4ec4-b792-2af5cc32efa8 Homo sapiens         0  
#>  7 29b7d356-4bb4-4ec4-b792-2af5cc32efa8 Martes foina         0  
#>  8 29b7d356-4bb4-4ec4-b792-2af5cc32efa8 Mustela putorius     0  
#>  9 29b7d356-4bb4-4ec4-b792-2af5cc32efa8 Vulpes vulpes        0  
#> 10 577b543a-2cf1-4b23-b6d2-cda7e2eac372 Anas platyrhynchos   0  
#> # ℹ 26 more rows
get_rai_individuals(mica, species = "all")
#> # A tibble: 36 × 3
#>    deploymentID                         scientificName       rai
#>    <chr>                                <chr>              <dbl>
#>  1 29b7d356-4bb4-4ec4-b792-2af5cc32efa8 Anas platyrhynchos 131. 
#>  2 29b7d356-4bb4-4ec4-b792-2af5cc32efa8 Anas strepera       60.3
#>  3 29b7d356-4bb4-4ec4-b792-2af5cc32efa8 Ardea                0  
#>  4 29b7d356-4bb4-4ec4-b792-2af5cc32efa8 Ardea cinerea        0  
#>  5 29b7d356-4bb4-4ec4-b792-2af5cc32efa8 Castor fiber         0  
#>  6 29b7d356-4bb4-4ec4-b792-2af5cc32efa8 Homo sapiens         0  
#>  7 29b7d356-4bb4-4ec4-b792-2af5cc32efa8 Martes foina         0  
#>  8 29b7d356-4bb4-4ec4-b792-2af5cc32efa8 Mustela putorius     0  
#>  9 29b7d356-4bb4-4ec4-b792-2af5cc32efa8 Vulpes vulpes        0  
#> 10 577b543a-2cf1-4b23-b6d2-cda7e2eac372 Anas platyrhynchos   0  
#> # ℹ 26 more rows
…
# Species parameter is case insensitive
get_rai_individuals(mica, species = c("ANAS plAtyRhynChOS"))
#> There are 3 deployments without observations: 577b543a-2cf1-4b23-b6d2-cda7e2eac372, 62c200a9-0e03-4495-bcd8-032944f6f5a1 and 7ca633fa-64f8-4cfc-a628-6b0c419056d7
#> # A tibble: 4 × 3
#>   deploymentID                         scientificName       rai
#>   <chr>                                <chr>              <dbl>
#> 1 29b7d356-4bb4-4ec4-b792-2af5cc32efa8 Anas platyrhynchos  131.
#> 2 577b543a-2cf1-4b23-b6d2-cda7e2eac372 Anas platyrhynchos    0 
#> 3 62c200a9-0e03-4495-bcd8-032944f6f5a1 Anas platyrhynchos    0 
#> 4 7ca633fa-64f8-4cfc-a628-6b0c419056d7 Anas platyrhynchos    0 

# Specify sex
get_rai_individuals(mica, sex = "female")
#> There are 3 deployments without observations: 577b543a-2cf1-4b23-b6d2-cda7e2eac372, 62c200a9-0e03-4495-bcd8-032944f6f5a1 and 7ca633fa-64f8-4cfc-a628-6b0c419056d7
#> # A tibble: 36 × 3
#>    deploymentID                         scientificName       rai
#>    <chr>                                <chr>              <dbl>
#>  1 29b7d356-4bb4-4ec4-b792-2af5cc32efa8 Anas platyrhynchos   0  
#>  2 29b7d356-4bb4-4ec4-b792-2af5cc32efa8 Anas strepera       10.0
#>  3 29b7d356-4bb4-4ec4-b792-2af5cc32efa8 Ardea                0  
#>  4 29b7d356-4bb4-4ec4-b792-2af5cc32efa8 Ardea cinerea        0  
#>  5 29b7d356-4bb4-4ec4-b792-2af5cc32efa8 Castor fiber         0  
#>  6 29b7d356-4bb4-4ec4-b792-2af5cc32efa8 Homo sapiens         0  
#>  7 29b7d356-4bb4-4ec4-b792-2af5cc32efa8 Martes foina         0  
#>  8 29b7d356-4bb4-4ec4-b792-2af5cc32efa8 Mustela putorius     0  
#>  9 29b7d356-4bb4-4ec4-b792-2af5cc32efa8 Vulpes vulpes        0  
#> 10 577b543a-2cf1-4b23-b6d2-cda7e2eac372 Anas platyrhynchos   0  
#> # ℹ 26 more rows
get_rai_individuals(mica, sex = c("female", "unknown"))
#> There are 1 deployments without observations: 7ca633fa-64f8-4cfc-a628-6b0c419056d7
#> # A tibble: 36 × 3
#>    deploymentID                         scientificName       rai
#>    <chr>                                <chr>              <dbl>
#>  1 29b7d356-4bb4-4ec4-b792-2af5cc32efa8 Anas platyrhynchos 131. 
#>  2 29b7d356-4bb4-4ec4-b792-2af5cc32efa8 Anas strepera       60.3
#>  3 29b7d356-4bb4-4ec4-b792-2af5cc32efa8 Ardea                0  
#>  4 29b7d356-4bb4-4ec4-b792-2af5cc32efa8 Ardea cinerea        0  
#>  5 29b7d356-4bb4-4ec4-b792-2af5cc32efa8 Castor fiber         0  
#>  6 29b7d356-4bb4-4ec4-b792-2af5cc32efa8 Homo sapiens         0  
#>  7 29b7d356-4bb4-4ec4-b792-2af5cc32efa8 Martes foina         0  
#>  8 29b7d356-4bb4-4ec4-b792-2af5cc32efa8 Mustela putorius     0  
#>  9 29b7d356-4bb4-4ec4-b792-2af5cc32efa8 Vulpes vulpes        0  
#> 10 577b543a-2cf1-4b23-b6d2-cda7e2eac372 Anas platyrhynchos   0  
#> # ℹ 26 more rows

# Specify life stage
get_rai_individuals(mica, life_stage = "adult")
#> There are 1 deployments without observations: 62c200a9-0e03-4495-bcd8-032944f6f5a1
#> # A tibble: 36 × 3
#>    deploymentID                         scientificName       rai
#>    <chr>                                <chr>              <dbl>
#>  1 29b7d356-4bb4-4ec4-b792-2af5cc32efa8 Anas platyrhynchos   0  
#>  2 29b7d356-4bb4-4ec4-b792-2af5cc32efa8 Anas strepera       10.0
#>  3 29b7d356-4bb4-4ec4-b792-2af5cc32efa8 Ardea                0  
#>  4 29b7d356-4bb4-4ec4-b792-2af5cc32efa8 Ardea cinerea        0  
#>  5 29b7d356-4bb4-4ec4-b792-2af5cc32efa8 Castor fiber         0  
#>  6 29b7d356-4bb4-4ec4-b792-2af5cc32efa8 Homo sapiens         0  
#>  7 29b7d356-4bb4-4ec4-b792-2af5cc32efa8 Martes foina         0  
#>  8 29b7d356-4bb4-4ec4-b792-2af5cc32efa8 Mustela putorius     0  
#>  9 29b7d356-4bb4-4ec4-b792-2af5cc32efa8 Vulpes vulpes        0  
#> 10 577b543a-2cf1-4b23-b6d2-cda7e2eac372 Anas platyrhynchos   0  
#> # ℹ 26 more rows
get_rai_individuals(mica, life_stage = c("adult", "subadult"))
#> There are 1 deployments without observations: 62c200a9-0e03-4495-bcd8-032944f6f5a1
#> # A tibble: 36 × 3
#>    deploymentID                         scientificName       rai
#>    <chr>                                <chr>              <dbl>
#>  1 29b7d356-4bb4-4ec4-b792-2af5cc32efa8 Anas platyrhynchos 111. 
#>  2 29b7d356-4bb4-4ec4-b792-2af5cc32efa8 Anas strepera       60.3
#>  3 29b7d356-4bb4-4ec4-b792-2af5cc32efa8 Ardea                0  
#>  4 29b7d356-4bb4-4ec4-b792-2af5cc32efa8 Ardea cinerea        0  
#>  5 29b7d356-4bb4-4ec4-b792-2af5cc32efa8 Castor fiber         0  
#>  6 29b7d356-4bb4-4ec4-b792-2af5cc32efa8 Homo sapiens         0  
#>  7 29b7d356-4bb4-4ec4-b792-2af5cc32efa8 Martes foina         0  
#>  8 29b7d356-4bb4-4ec4-b792-2af5cc32efa8 Mustela putorius     0  
#>  9 29b7d356-4bb4-4ec4-b792-2af5cc32efa8 Vulpes vulpes        0  
#> 10 577b543a-2cf1-4b23-b6d2-cda7e2eac372 Anas platyrhynchos   0  
#> # ℹ 26 more rows
…
