…
## Examples

``` r
# Get number of observations for each species
get_n_obs(mica)
#> # A tibble: 36 × 3
#>    deploymentID                         scientificName         n
#>    <chr>                                <chr>              <int>
#>  1 29b7d356-4bb4-4ec4-b792-2af5cc32efa8 Anas strepera          3
#>  2 29b7d356-4bb4-4ec4-b792-2af5cc32efa8 Anas platyrhynchos     4
#>  3 29b7d356-4bb4-4ec4-b792-2af5cc32efa8 Castor fiber           0
#>  4 29b7d356-4bb4-4ec4-b792-2af5cc32efa8 Mustela putorius       0
#>  5 29b7d356-4bb4-4ec4-b792-2af5cc32efa8 Vulpes vulpes          0
#>  6 29b7d356-4bb4-4ec4-b792-2af5cc32efa8 Martes foina           0
#>  7 29b7d356-4bb4-4ec4-b792-2af5cc32efa8 Ardea cinerea          0
#>  8 29b7d356-4bb4-4ec4-b792-2af5cc32efa8 Ardea                  0
#>  9 29b7d356-4bb4-4ec4-b792-2af5cc32efa8 Homo sapiens           0
#> 10 577b543a-2cf1-4b23-b6d2-cda7e2eac372 Anas strepera          0
#> # ℹ 26 more rows
…
# Specify life stage
get_n_obs(mica, life_stage = "subadult")
#> There are 3 deployments without observations: 577b543a-2cf1-4b23-b6d2-cda7e2eac372, 62c200a9-0e03-4495-bcd8-032944f6f5a1 and 7ca633fa-64f8-4cfc-a628-6b0c419056d7
#> # A tibble: 36 × 3
#>    deploymentID                         scientificName         n
#>    <chr>                                <chr>              <int>
#>  1 29b7d356-4bb4-4ec4-b792-2af5cc32efa8 Anas strepera          2
#>  2 29b7d356-4bb4-4ec4-b792-2af5cc32efa8 Anas platyrhynchos     3
#>  3 29b7d356-4bb4-4ec4-b792-2af5cc32efa8 Ardea                  0
#>  4 29b7d356-4bb4-4ec4-b792-2af5cc32efa8 Ardea cinerea          0
#>  5 29b7d356-4bb4-4ec4-b792-2af5cc32efa8 Castor fiber           0
#>  6 29b7d356-4bb4-4ec4-b792-2af5cc32efa8 Homo sapiens           0
#>  7 29b7d356-4bb4-4ec4-b792-2af5cc32efa8 Martes foina           0
#>  8 29b7d356-4bb4-4ec4-b792-2af5cc32efa8 Mustela putorius       0
#>  9 29b7d356-4bb4-4ec4-b792-2af5cc32efa8 Vulpes vulpes          0
#> 10 577b543a-2cf1-4b23-b6d2-cda7e2eac372 Anas strepera          0
#> # ℹ 26 more rows

# Specify sex
get_n_obs(mica, sex = "female")
#> There are 3 deployments without observations: 577b543a-2cf1-4b23-b6d2-cda7e2eac372, 62c200a9-0e03-4495-bcd8-032944f6f5a1 and 7ca633fa-64f8-4cfc-a628-6b0c419056d7
#> # A tibble: 36 × 3
#>    deploymentID                         scientificName         n
#>    <chr>                                <chr>              <int>
#>  1 29b7d356-4bb4-4ec4-b792-2af5cc32efa8 Anas strepera          1
#>  2 29b7d356-4bb4-4ec4-b792-2af5cc32efa8 Anas platyrhynchos     0
#>  3 29b7d356-4bb4-4ec4-b792-2af5cc32efa8 Ardea                  0
#>  4 29b7d356-4bb4-4ec4-b792-2af5cc32efa8 Ardea cinerea          0
#>  5 29b7d356-4bb4-4ec4-b792-2af5cc32efa8 Castor fiber           0
#>  6 29b7d356-4bb4-4ec4-b792-2af5cc32efa8 Homo sapiens           0
#>  7 29b7d356-4bb4-4ec4-b792-2af5cc32efa8 Martes foina           0
#>  8 29b7d356-4bb4-4ec4-b792-2af5cc32efa8 Mustela putorius       0
#>  9 29b7d356-4bb4-4ec4-b792-2af5cc32efa8 Vulpes vulpes          0
#> 10 577b543a-2cf1-4b23-b6d2-cda7e2eac372 Anas strepera          0
#> # ℹ 26 more rows

# Specify both sex and life stage
get_n_obs(mica, sex = "unknown", life_stage = "adult")
#> There are 3 deployments without observations: 29b7d356-4bb4-4ec4-b792-2af5cc32efa8, 62c200a9-0e03-4495-bcd8-032944f6f5a1 and 7ca633fa-64f8-4cfc-a628-6b0c419056d7
#> # A tibble: 36 × 3
#>    deploymentID                         scientificName         n
#>    <chr>                                <chr>              <int>
#>  1 29b7d356-4bb4-4ec4-b792-2af5cc32efa8 Castor fiber           0
#>  2 29b7d356-4bb4-4ec4-b792-2af5cc32efa8 Mustela putorius       0
#>  3 29b7d356-4bb4-4ec4-b792-2af5cc32efa8 Vulpes vulpes          0
#>  4 29b7d356-4bb4-4ec4-b792-2af5cc32efa8 Martes foina           0
#>  5 29b7d356-4bb4-4ec4-b792-2af5cc32efa8 Anas platyrhynchos     0
#>  6 29b7d356-4bb4-4ec4-b792-2af5cc32efa8 Anas strepera          0
#>  7 29b7d356-4bb4-4ec4-b792-2af5cc32efa8 Ardea                  0
#>  8 29b7d356-4bb4-4ec4-b792-2af5cc32efa8 Ardea cinerea          0
#>  9 29b7d356-4bb4-4ec4-b792-2af5cc32efa8 Homo sapiens           0
#> 10 577b543a-2cf1-4b23-b6d2-cda7e2eac372 Castor fiber           1
#> # ℹ 26 more rows
…
