…
# Effort for each deployment at daily interval
get_custom_effort(
  mica,
  group_by = "day"
)
#> # A tibble: 2,232 × 5
#>    deploymentID                         locationName     begin      effort unit 
#>    <chr>                                <chr>            <date>      <dbl> <chr>
#>  1 29b7d356-4bb4-4ec4-b792-2af5cc32efa8 B_DL_val 5_beek… 2019-10-09      0 hour 
#>  2 29b7d356-4bb4-4ec4-b792-2af5cc32efa8 B_DL_val 5_beek… 2019-10-10      0 hour 
#>  3 29b7d356-4bb4-4ec4-b792-2af5cc32efa8 B_DL_val 5_beek… 2019-10-11      0 hour 
#>  4 29b7d356-4bb4-4ec4-b792-2af5cc32efa8 B_DL_val 5_beek… 2019-10-12      0 hour 
#>  5 29b7d356-4bb4-4ec4-b792-2af5cc32efa8 B_DL_val 5_beek… 2019-10-13      0 hour 
#>  6 29b7d356-4bb4-4ec4-b792-2af5cc32efa8 B_DL_val 5_beek… 2019-10-14      0 hour 
#>  7 29b7d356-4bb4-4ec4-b792-2af5cc32efa8 B_DL_val 5_beek… 2019-10-15      0 hour 
#>  8 29b7d356-4bb4-4ec4-b792-2af5cc32efa8 B_DL_val 5_beek… 2019-10-16      0 hour 
#>  9 29b7d356-4bb4-4ec4-b792-2af5cc32efa8 B_DL_val 5_beek… 2019-10-17      0 hour 
#> 10 29b7d356-4bb4-4ec4-b792-2af5cc32efa8 B_DL_val 5_beek… 2019-10-18      0 hour 
#> # ℹ 2,222 more rows

# Effort for each deployment at weekly interval
get_custom_effort(
  mica,
  group_by = "week"
)
#> # A tibble: 324 × 5
#>    deploymentID                         locationName     begin      effort unit 
#>    <chr>                                <chr>            <date>      <dbl> <chr>
#>  1 29b7d356-4bb4-4ec4-b792-2af5cc32efa8 B_DL_val 5_beek… 2019-10-06      0 hour 
#>  2 29b7d356-4bb4-4ec4-b792-2af5cc32efa8 B_DL_val 5_beek… 2019-10-13      0 hour 
#>  3 29b7d356-4bb4-4ec4-b792-2af5cc32efa8 B_DL_val 5_beek… 2019-10-20      0 hour 
#>  4 29b7d356-4bb4-4ec4-b792-2af5cc32efa8 B_DL_val 5_beek… 2019-10-27      0 hour 
#>  5 29b7d356-4bb4-4ec4-b792-2af5cc32efa8 B_DL_val 5_beek… 2019-11-03      0 hour 
#>  6 29b7d356-4bb4-4ec4-b792-2af5cc32efa8 B_DL_val 5_beek… 2019-11-10      0 hour 
#>  7 29b7d356-4bb4-4ec4-b792-2af5cc32efa8 B_DL_val 5_beek… 2019-11-17      0 hour 
#>  8 29b7d356-4bb4-4ec4-b792-2af5cc32efa8 B_DL_val 5_beek… 2019-11-24      0 hour 
#>  9 29b7d356-4bb4-4ec4-b792-2af5cc32efa8 B_DL_val 5_beek… 2019-12-01      0 hour 
#> 10 29b7d356-4bb4-4ec4-b792-2af5cc32efa8 B_DL_val 5_beek… 2019-12-08      0 hour 
#> # ℹ 314 more rows

# Effort for each deployment at monthly interval
get_custom_effort(
  mica,
  group_by = "month"
)
#> # A tibble: 76 × 5
#>    deploymentID                         locationName     begin      effort unit 
#>    <chr>                                <chr>            <date>      <dbl> <chr>
#>  1 29b7d356-4bb4-4ec4-b792-2af5cc32efa8 B_DL_val 5_beek… 2019-10-01    0   hour 
#>  2 29b7d356-4bb4-4ec4-b792-2af5cc32efa8 B_DL_val 5_beek… 2019-11-01    0   hour 
#>  3 29b7d356-4bb4-4ec4-b792-2af5cc32efa8 B_DL_val 5_beek… 2019-12-01    0   hour 
#>  4 29b7d356-4bb4-4ec4-b792-2af5cc32efa8 B_DL_val 5_beek… 2020-01-01    0   hour 
#>  5 29b7d356-4bb4-4ec4-b792-2af5cc32efa8 B_DL_val 5_beek… 2020-02-01    0   hour 
#>  6 29b7d356-4bb4-4ec4-b792-2af5cc32efa8 B_DL_val 5_beek… 2020-03-01    0   hour 
#>  7 29b7d356-4bb4-4ec4-b792-2af5cc32efa8 B_DL_val 5_beek… 2020-04-01    0   hour 
#>  8 29b7d356-4bb4-4ec4-b792-2af5cc32efa8 B_DL_val 5_beek… 2020-05-01    0   hour 
#>  9 29b7d356-4bb4-4ec4-b792-2af5cc32efa8 B_DL_val 5_beek… 2020-06-01    0   hour 
#> 10 29b7d356-4bb4-4ec4-b792-2af5cc32efa8 B_DL_val 5_beek… 2020-07-01   66.5 hour 
#> # ℹ 66 more rows
…
