Get custom effort — get_custom_effort • camtraptor
…
# Effort at daily interval
get_custom_effort(
  mica,
  group_by = "day"
)
#> # A tibble: 558 × 3
#>    begin      effort unit 
#>    <date>      <dbl> <chr>
#>  1 2019-10-09   12.7 hour 
#>  2 2019-10-10   24   hour 
#>  3 2019-10-11   24   hour 
#>  4 2019-10-12   24   hour 
#>  5 2019-10-13   24   hour 
#>  6 2019-10-14   24   hour 
#>  7 2019-10-15   24   hour 
#>  8 2019-10-16   24   hour 
#>  9 2019-10-17   24   hour 
#> 10 2019-10-18   24   hour 
#> # ℹ 548 more rows

# Effort at weekly interval
get_custom_effort(
  mica,
  group_by = "week"
)
#> # A tibble: 81 × 3
#>    begin      effort unit 
#>    <date>      <dbl> <chr>
#>  1 2019-10-06   84.7 hour 
#>  2 2019-10-13  168   hour 
#>  3 2019-10-20   82.0 hour 
#>  4 2019-10-27    0   hour 
#>  5 2019-11-03    0   hour 
#>  6 2019-11-10    0   hour 
#>  7 2019-11-17    0   hour 
#>  8 2019-11-24    0   hour 
#>  9 2019-12-01    0   hour 
#> 10 2019-12-08    0   hour 
#> # ℹ 71 more rows
…
