Record table • camtrapdp
…
By loading pacakge camtrapdp, a camera trap data package called camtrapdp is made available. This data package contains camera trap data of musk rats and coypus. We will use this variable from now on.

Species record table

The camtrapR’s function recordTable() generates:

a record table from camera trap images or videos

At a certain extent the aggregation of multimedia (e.g. images) into observations is already done in a camera trap data package.

If we consider that all observations are independent, then, it will be sufficient to run the following:

get_record_table(camtrapdp)
#> # A tibble: 267 × 11
#>    Station            Species DateTimeOriginal    Date       Time  delta.time.secs
#>    <chr>              <chr>   <dttm>              <date>     <chr>           <dbl>
#>  1 B_ML_val 03_De Val Anas p… 2020-06-03 20:27:31 2020-06-03 20:2…               0
#>  2 B_ML_val 03_De Val Anas p… 2020-06-08 20:22:13 2020-06-08 20:2…          431682
#>  3 B_ML_val 03_De Val Anas p… 2020-06-10 20:30:59 2020-06-10 20:3…          173326
#>  4 B_ML_val 03_De Val Anas p… 2020-06-11 20:36:45 2020-06-11 20:3…           86746
#>  5 B_ML_val 03_De Val Anas p… 2020-06-11 20:47:05 2020-06-11 20:4…             620
#>  6 B_ML_val 03_De Val Anas p… 2020-06-18 21:07:48 2020-06-18 21:0…          606043
#>  7 B_ML_val 03_De Val Anas p… 2020-06-22 20:17:01 2020-06-22 20:1…          342553
#>  8 B_ML_val 03_De Val Anas p… 2020-06-23 03:29:34 2020-06-23 03:2…           25953
#>  9 B_ML_val 03_De Val Anas p… 2020-06-27 03:28:59 2020-06-27 03:2…          345565
#> 10 B_ML_val 03_De Val Anas p… 2020-06-27 03:40:16 2020-06-27 03:4…             677
#> # … with 257 more rows, and 5 more variables: delta.time.mins <dbl>,
#> #   delta.time.hours <dbl>, delta.time.days <dbl>, Directory <list>,
#> #   FileName <list>
…
The following remarks are both valid for camtrapR’s function recordTable() and the function get_record_table() of this package: 1. observations are grouped by station and species 2. observations of unidentified animals are removed 2. the elapsed time of the first observation (record) of a species at a certain station is set to 0 by default

Temporal independence

As described in Chapter 3 of camptrapR documentation, we could filter observations using an adjustable criterion for temporal independence between subsequent records of the same species in an attempt to remove non-independent records. As for recordTable(), this is achieved via argument minDeltaTime, defined as the minimum time difference (in minutes) between two records of the same species at the same station which are to be considered independent. As shown above, the default is 0, causing the function to return all records.

Again, as for recordTable(), we provide an argument, deltaTimeComparedTo, to further control how independence between records is assessed. Setting it to “lastRecord” returns only records taken minDeltaTime minutes after the last record, i.e. minDeltaTime minutes after timestamp of the last recorded multimedia file. Example with minDeltaTime = 60 (1 hour):

get_record_table(camtrapdp, 
                 minDeltaTime = 60, 
                 deltaTimeComparedTo = "lastRecord")
#> Number of not independent observations to be removed: 138
#> # A tibble: 129 × 11
#>    Station            Species DateTimeOriginal    Date       Time  delta.time.secs
#>    <chr>              <chr>   <dttm>              <date>     <chr>           <dbl>
#>  1 B_ML_val 03_De Val Anas p… 2020-06-03 20:27:31 2020-06-03 20:2…               0
#>  2 B_ML_val 03_De Val Anas p… 2020-06-08 20:22:13 2020-06-08 20:2…          431682
#>  3 B_ML_val 03_De Val Anas p… 2020-06-10 20:30:59 2020-06-10 20:3…          173326
#>  4 B_ML_val 03_De Val Anas p… 2020-06-11 20:36:45 2020-06-11 20:3…           86746
#>  5 B_ML_val 03_De Val Anas p… 2020-06-18 21:07:48 2020-06-18 21:0…          606663
#>  6 B_ML_val 03_De Val Anas p… 2020-06-22 20:17:01 2020-06-22 20:1…          342553
#>  7 B_ML_val 03_De Val Anas p… 2020-06-23 03:29:34 2020-06-23 03:2…           25953
#>  8 B_ML_val 03_De Val Anas p… 2020-06-27 03:28:59 2020-06-27 03:2…          345565
#>  9 B_ML_val 03_De Val Anas p… 2020-06-27 20:20:38 2020-06-27 20:2…           60699
#> 10 B_ML_val 03_De Val Anas p… 2020-06-29 02:23:01 2020-06-29 02:2…          108143
#> # … with 119 more rows, and 5 more variables: delta.time.mins <dbl>,
#> #   delta.time.hours <dbl>, delta.time.days <dbl>, Directory <list>,
#> #   FileName <list>

Setting deltaTimeComparedTo to “lastIndependentRecord” returns only records taken minDeltaTime minutes after the last independent record, i.e. minDeltaTime minutes after timestamp of the last observation. Example with minDeltaTime = 60 (1 hour):

get_record_table(camtrapdp, 
                 minDeltaTime = 60, 
                 deltaTimeComparedTo = "lastIndependentRecord")
#> Number of not independent observations to be removed: 136
#> # A tibble: 131 × 11
#>    Station            Species DateTimeOriginal    Date       Time  delta.time.secs
#>    <chr>              <chr>   <dttm>              <date>     <chr>           <dbl>
#>  1 B_ML_val 03_De Val Anas p… 2020-06-03 20:27:31 2020-06-03 20:2…               0
#>  2 B_ML_val 03_De Val Anas p… 2020-06-08 20:22:13 2020-06-08 20:2…          431682
#>  3 B_ML_val 03_De Val Anas p… 2020-06-10 20:30:59 2020-06-10 20:3…          173326
#>  4 B_ML_val 03_De Val Anas p… 2020-06-11 20:36:45 2020-06-11 20:3…           86746
#>  5 B_ML_val 03_De Val Anas p… 2020-06-18 21:07:48 2020-06-18 21:0…          606663
#>  6 B_ML_val 03_De Val Anas p… 2020-06-22 20:17:01 2020-06-22 20:1…          342553
#>  7 B_ML_val 03_De Val Anas p… 2020-06-23 03:29:34 2020-06-23 03:2…           25953
#>  8 B_ML_val 03_De Val Anas p… 2020-06-27 03:28:59 2020-06-27 03:2…          345565
#>  9 B_ML_val 03_De Val Anas p… 2020-06-27 20:20:38 2020-06-27 20:2…           60699
#> 10 B_ML_val 03_De Val Anas p… 2020-06-29 02:23:01 2020-06-29 02:2…          108143
#> # … with 121 more rows, and 5 more variables: delta.time.mins <dbl>,
#> #   delta.time.hours <dbl>, delta.time.days <dbl>, Directory <list>,
#> #   FileName <list>
…
Station names

The column containing the station names can also be defined by the user if the default value, "location_name", is not the correct one. It has to be a valid column of deployments. Here below, location_id is used:

get_record_table(camtrapdp, stationCol = "location_id")
#> # A tibble: 267 × 11
#>    Station        Species   DateTimeOriginal    Date       Time  delta.time.secs
#>    <chr>          <chr>     <dttm>              <date>     <chr>           <dbl>
#>  1 56128022-6061… Anas pla… 2020-06-03 20:04:33 2020-06-03 20:0…               0
#>  2 56128022-6061… Anas pla… 2020-06-04 02:10:17 2020-06-04 02:1…           21944
#>  3 56128022-6061… Anas pla… 2020-06-04 03:36:22 2020-06-04 03:3…            5165
#>  4 56128022-6061… Anas pla… 2020-06-06 01:51:53 2020-06-06 01:5…          166531
#>  5 7c989f1e-4fcb… Anas pla… 2020-06-05 20:24:17 2020-06-05 20:2…               0
#>  6 7c989f1e-4fcb… Anas pla… 2020-06-05 20:24:17 2020-06-05 20:2…               0
#>  7 91d9abdd-da56… Anas pla… 2020-06-03 20:10:18 2020-06-03 20:1…               0
#>  8 91d9abdd-da56… Anas pla… 2020-06-03 20:57:50 2020-06-03 20:5…            2852
#>  9 91d9abdd-da56… Anas pla… 2020-06-03 23:19:10 2020-06-03 23:1…            8480
#> 10 91d9abdd-da56… Anas pla… 2020-06-04 21:05:24 2020-06-04 21:0…           78374
#> # … with 257 more rows, and 5 more variables: delta.time.mins <dbl>,
#> #   delta.time.hours <dbl>, delta.time.days <dbl>, Directory <list>,
#> #   FileName <list>
…
